info:
  name: Get All Posts
  type: http
  seq: 3

http:
  method: GET
  url: http://localhost:5000/api/posts?page=1&limit=5

settings:
  encodeUrl: true
  timeout: 0
  followRedirects: true
  maxRedirects: 5

examples:
  - name: Get All Posts - 200
    request:
      url: http://localhost:5000/api/posts?page=1&limit=5
      method: GET
    response:
      status: 200
      statusText: OK
      headers:
        - name: x-powered-by
          value: Express
        - name: content-type
          value: application/json; charset=utf-8
        - name: content-length
          value: "2951"
        - name: etag
          value: W/"b87-iAXyAZAW4JpfAo1/1IuFoKggD4w"
        - name: date
          value: Sun, 24 May 2026 13:06:55 GMT
        - name: connection
          value: keep-alive
        - name: keep-alive
          value: timeout=5
      body:
        type: json
        data: |-
          {
            "success": true,
            "data": [
              {
                "_id": "6a12f298e69915b822f93508",
                "user": "6a0097ab779909396484a6cc",
                "text": "a",
                "tags": [],
                "name": "Huynh Ngoc Tai",
                "avatar": "",
                "likes": [],
                "comments": [],
                "date": "2026-05-24T12:44:08.432Z",
                "__v": 0
              },
              {
                "_id": "6a0a42454efb51b81d49a41e",
                "user": "6a0097ab779909396484a6cc",
                "text": "Nội dung bài đăng thử nghiệm qua Bruno taitest",
                "tags": [],
                "name": "Huynh Ngoc Tai",
                "avatar": "",
                "likes": [
                  {
                    "user": "6a0097ab779909396484a6cc",
                    "_id": "6a0a5cec10ee4a8f21ce33bb"
                  }
                ],
                "comments": [
                  {
                    "user": "6a0097ab779909396484a6cc",
                    "text": "hi",
                    "name": "Huynh Ngoc Tai",
                    "avatar": "",
                    "_id": "6a0a5cef10ee4a8f21ce33bf",
                    "date": "2026-05-18T00:27:27.761Z"
                  },
                  {
                    "user": "6a0097ab779909396484a6cc",
                    "text": "Xin chào mọi người",
                    "name": "Huynh Ngoc Tai",
                    "avatar": "",
                    "_id": "6a0a45114efb51b81d49a42b",
                    "date": "2026-05-17T22:45:37.108Z"
                  },
                  {
                    "user": "6a0097ab779909396484a6cc",
                    "text": "Đây là bình luận test từ Bruno",
                    "name": "Huynh Ngoc Tai",
                    "avatar": "",
                    "_id": "6a0a43fe4efb51b81d49a425",
                    "date": "2026-05-17T22:41:02.251Z"
                  }
                ],
                "date": "2026-05-17T22:33:41.543Z",
                "__v": 14
              },
              {
                "_id": "6a0a3f1d4efb51b81d49a40e",
                "user": "6a0097ab779909396484a6cc",
                "text": "Nội dung bài đăng thử nghiệm qua Bruno taitest",
                "tags": [],
                "name": "Huynh Ngoc Tai",
                "avatar": "",
                "likes": [
                  {
                    "user": "6a0097ab779909396484a6cc",
                    "_id": "6a0a41f64efb51b81d49a41b"
                  }
                ],
                "comments": [
                  {
                    "user": "6a0097ab779909396484a6cc",
                    "text": "Cảm ơn bạn",
                    "name": "Huynh Ngoc Tai",
                    "avatar": "",
                    "_id": "6a0a41fd4efb51b81d49a41d",
                    "date": "2026-05-17T22:32:29.694Z"
                  }
                ],
                "date": "2026-05-17T22:20:13.519Z",
                "__v": 2
              },
              {
                "_id": "6a09c2fd9037a6492e794066",
                "user": "651a1b2c3d4e5f60718293a4",
                "text": "demo123",
                "tags": [],
                "name": "Trí Hiệu Võ",
                "avatar": "//www.gravatar.com/avatar/205e460b479e2e5b48aec07710c08d50?s=200&r=pg&d=mm",
                "likes": [],
                "comments": [],
                "date": "2026-05-17T13:30:37.986Z",
                "__v": 0
              },
              {
                "_id": "651a6d1e2f30415263748591",
                "user": "651a3a1b2c3d4e5f60718292",
                "text": "Mọi người thường dùng công cụ nào để vẽ Entity-Relationship Diagrams (ERD) và script SQL cho dự án thương mại điện tử? Mình đang làm trang web AudioGear.",
                "name": "Nguyễn Quốc Khánh",
                "avatar": "//www.gravatar.com/avatar/00000000000000000000000000000003?s=200&r=pg&d=mm",
                "likes": [
                  {
                    "user": "6a0097ab779909396484a6cc",
                    "_id": "6a0a3ae24efb51b81d49a3fe"
                  }
                ],
                "comments": [
                  {
                    "user": "6a0097ab779909396484a6cc",
                    "text": "Xin chào",
                    "name": "Huynh Ngoc Tai",
                    "avatar": "",
                    "_id": "6a0a3aec4efb51b81d49a401",
                    "date": "2026-05-17T22:02:20.036Z"
                  },
                  {
                    "_id": "651a7e1f2031425364758692",
                    "user": "651a3a1b2c3d4e5f60718290",
                    "text": "Draw.io hoặc dbdiagram.io nha. Mình hay xài dbdiagram vì chỉ cần gõ code là nó tự generate ra hình minh họa luôn, khá tiện lợi cho mấy website thương mại điện tử.",
                    "name": "Lê Ngô Nhựt Tân",
                    "avatar": "//www.gravatar.com/avatar/00000000000000000000000000000001?s=200&r=pg&d=mm",
                    "date": "2024-02-06T09:00:00.000Z"
                  }
                ],
                "date": "2024-02-05T09:00:00.000Z",
                "__v": 2,
                "tags": []
              }
            ],
            "hasMore": true,
            "total": 7,
            "page": 1,
            "limit": 5
          }
